J32620112C
O00446015G
P12255241H
R42036150Q
E43533541B
U20522634V
S32322263R
B20254130O
S33615330M
H51350421A
X23623162C
V23066026S
T46450032A
J14633111K
V41302542M
T46535144P
X05530002C
I22653465U
U16254231I
W36111563I
J51104434O
O43115410M
X20112140Q
W53213042T
S02415605L
D31124554N
B31546504N
D04120014I
X55622623K
Y31414116Y
Y14600444D
Y45311221M
K52036126E
G34654154G
C35341344E
Y32601320L
G22331341Y
M54252024D
V65221206Q
P35302040N
Y34036062J
P05024606K
G44305143X
D53315522L
B21313624C
M36633363C
C43241420J
P03054356G
X56340055A
N30205640A
B43364552V
V51034150B
M16530055U
G03460502B
Q65310240K
N21655344A
H40514461K
S53243400F
F15565414V
P65160603T
R01114051U
Q15163546E
Q05532452F
R33660006G
S46213363O
D04646034A
W40043236G
B26465624U
F54423635M
X64025403X
X34564211E
H51636336X
V05206161Q
X62056054D
H54133360W
N33231245V
C51211465R
W45223150N
X43041040Y
Q46036113L
I52322434J
S22423455W
U43340254V
V10231346C
E62160311H
E14114330H
V40616210Q
X01256222X
J52012012B
P22444002Q
J16165532N
X20043226A
T66424125I
I16531210J
R56531262T
P06016631S
C30661462Y
R12261511A
T00264322V
K43606503Y
C11056463V
N02423164E
B00005133T
A63365151W
P44246404X
U16512304V
N30413316V
G46601323N
A03553326I
V23656621S
B23453100J
E65212302L
R33430345J
P43513055I
M30560315S
R10156122X
Q65213213A
A05444316W
A04462060L
I65560541H
A62613162Q
W26041054J
I01131312Q
D20531050N
P55414301T
D20006502P
A61626555F
G34202310Q
X53212652D
V51034005Q
I63431113B
A61053300R
R33151323S
S56233434T
L63545402Y
U24413554V
D51010544E
M46463650N
B16253616A
C65363440Q
B23303464M
K61225332H
H26316604I
U42506054K
K01134334P
Q43153440X
G66524114B
U51216132E
Y22556402C
Y62203432I
A16335564U
J66413604T
J50055262N
C61325041E
V20250325D
A04401221S
Y04232326I
G16432425Q
N35113356W
G31004536H
W14210013F
U36563601X
G34026156V
I26216564O
D62355265Y
F55503461S
P16635050X
E54456626T
U05460635W
O40330412U
B42624201V
X63502426K
Q41205403P
A21461411H
A46462010B
G43313243X
S43356454T
Y61243116V
D55024262N
Y64165560B
P10020115O
E64115012U
M52340110J
P00105154B
A32055353P
O23533123B
H54336020D
C56045244B
G26044143B
N66024126J
W04046651M
P33256020D
G52521634L
T34130430D
A44502111B
G01430052T
B25431324N
Y01031352J
I64414110A
Q46213505O
O43331452A
U23562414P
L00555623G
K30553213D
A46501350A
X02420310P
O64221146T
I26462514A
O24526306S
D41434140A
G23324610V
H11503221I
V00313511C
F03331002S
C46210244B
U15554015B
P25306013E
U61311254M
U20004032P
W00422313Y
R10335401A
A15002632H
I50341416A
Y14034430E
S34153320R
Q23320446I
I23163652J
H06312025V
M55353532Q
W41510164I
Y35605140W
G30356566H
J55552005C
M05052412B
B25164100V
U11414140X
H34553643S
Y21561055I
P46113005F
F03420614J
G64232251T
P51336010O
V43053445H
P30316624Y
O11012646Y
B03012602U
M54145423M
P23453622E
I54523636U
V14144121V
I31053233C
T42202532R
O40453540H
F46320333E
L06111342Y
G44530335N
I06436142N
V62614412S
W32654215M
X45236053C
U42200145G
N56325415X
Q16201004F
X02540651A
Q13621644E
V06662260W
Y11140035D
V56664055V
D25602043N
N11556601H
J01413423X
W13662366P
B10062543K
Q61530404G
B33563633E
S22552311W
N25122602A
U10342305V
J34065302F
J35355446U
B32263544Y
T34646002S
H03665543L
Q51435233M
P31466516B
R04566420X
V02325533N
C45612404E
P11224042K
A26205203F
S06644626M
U51636545J
X10510533E
M54210346J
L10656614S
S04263304L
D35262506G
C63044311G
L53212133A
N34313632B
N12654631H
V06214314C
K65451045K
A46054403J
G61411115S
A15130001T
O42461233Y
S44442141S
R62504133N
Q12431025Q
B63645642M
W35445446T
H53112263U
B06012230T
W60506341H
N32562545G
L53556116O
V30262653W
G46365101P
N63011202L
U32116422L
O22361155U
K41001613D
R66233165B
A64642040C
E06414504P
R32315234M
O50502366W
E25364006O
H32001503U
D43331365F
O05316312S
X35443452H
F03210133F
V24312430E
M61425521J
M01113610W
M06364553A
W21643024I
N41344634H
C03330064L
J44202664R
J01154522R
T04461153R
L50200202E
M63450001X
Y20551121J
D23155510W
B60543164N
J42055651E
A55556140U
V11626344W
V26651242B
J40524632I
U01301306S
M00540520G
O63533442V
W53204604A
L46000053B
A23261635U
S20066222L
E30406043P
C50564123J
V42335663V
I34265162F
Y16516233I
T66042453J
W05065514H
F55253431E
P10112653B
E33565212C
J00212063G
B45242263D
R33240666F
N36333526P
Y54664164A
P20564634U
P15123621C
M36143362P
R26211656U
P36344102R
B53210544R
A60364402U
L03661632R
B13340134E
V63050530L
Q46632462S
F53563452J
D35306006T
U12322004Q
D04436242G
S13500123U
S44626301P
N30405562G
H40205124E
W25461135Q
E50255243H
R60165130S
J62520432D
A52134352K
C35224461K
O64346323F
F31411003M
S34342235F
E03050044U
U45416633K
G35030635U
G46425004C
E30100361O
W53605345V
O41431232Y
T16220100P
S62600434V
N04232323K
N54341304A
P66131034F
M23125460T
I33466443R
S11302236K
N63041662E
C45441346K
K23462214P
P03312203L
N15623036X
T41413322R
V34212214X
X23040645A
G10544311F
M46225521E
A40422153N
U61254136P
I26301020E
P56405362B
P34654446J
G66144003V
R52531106F
F21313601K
R53144236X
O40510310L
A04034612U
V01464206B
W15312255K
H14222112H
A06534200R
D15563044D
F03301604M
M30002551P
K53234343Y
P13245014D
R52414033E
T56556330B
V14665054G
U66000050I
I12300133W
H60302412I
N15656053U
N14003243K
I43213535R
I30402550H
P36404052J
Q11046440B
W53654200M
E66625003X
H61603513O
K50152001J
U12221123H
S04410055U
Q62653233O
O15042612C
I11345314F
T55630614N
K30112525T
H05431433D
J23243054O
D66544011E
G14300465I
K65005610L
R44555210L
M05642625I
O30264323X
U34303346H
G64426003P
P21503250Q
U04130310C
S64500213I
V20221222W
E25465226Q
T66521512P
P36450555I
X41154303J
M01464116N
E26052113I
I12023640D
D56610225Y
W42411635S
J21060454Y
J11143432J
D25416346G
K53154662B
C42636464E
E54212633G
N51420454P
L23240123O
L06651524X
E11142104J
N12413254P
S20054253C
X32603530P
R45662362A
U62222144O
W64342133H
W33401633D
R33516065H
Q25320364I
L25312631G
F55465442N
L45443530H
Y26631336G
J26110504L
E42020024U
B14123603Q
N11021232I
W53361451G
R41162231N
X35365454K
U46622332A
K26024310G
P10023141O
W24623345V
J52056560U
I65144144K
R02516665D
F46005315E
Q64513441T
E42142354U
N01552464V
A25232434I
S35562265O
L50630460R
X23643243I
A64450250C
Y15041645W
J56264603U
K33546001X
S36642312P
T01144311N
A45633241G
C16301061P
N01530006I
W40254434M
M22654656B
C05643641F
M51015152X
A30556640I
V35401322V
U20106001G
G42411620H
X20111612W
B60550016Y
C64446635H
Y00464113Y
K53204023P
U55552206D
M51061533G
C21136121O
D43162103V
C22114221E
I61125665I
P33461064D
Y56205524D
G66244145G
U13633542P
R51540162P
K42335133Y
I00604566S
H21213621V
B23556400Q
O33455611Y
D24143266Y
M35005156U
C23442452G
W06610051Q
M04136210J
Y43415040V
L62321560O
B23340011Q
E65240521J
S05121661O
U66656644T
Y40602151S
K36036001G
J21412405N
E45636616M
C14206015N
U25224331N
I61030444A
W46661135N
V26201324T
T24401252J
M16240615O
J32624325P
E16056626K
K25101462J
V66234335W
J10542041W
F25613235K
O61240426Y
C66503262D
U21531111J
O40105301E
D41542442C
S30223660Y
S04613342K
I62345616M
J11466541P
E44040200W
L03626463Q
L20030350U
Y52334520N
A32522521B
D56212036S
P05004264A
X23614531Q
Q14333215N
V54640015J
A43250253R
A41036244G
X41651422A
Q53511635G
D55031023V
C51612100E
H24301402L
Y31554104G
Y42626130C
N40544634J
T20656115L
C06544165X
X04350316G
P33624600J
U51635435R
F45460110K
G20002054D
N23115266H
F40222006S
F01602664A
W56110415V
I23346152O
L66311311B
K32451310I
C03151221A
N44263054R
M21022205M
H23366432T
V01066250C
M25045630W
D63520363E
T55065105W
P00035026C
P01326541W
Y22343344R
L44512013O
M06521136H
E65406126P
G32111244W
O04332511U
A62222642L
C45312341D
A63216646F
L25601615R
H55635426S
Y56015624D
D06022002M
N36211264T
S04404113N
E61124215Q
C61650221W
S24633454N
F64314010A
U54246616J
L21254541F
O15350251W
K33035031H
K52206621C
G31556162J
X41025641M
L25314352U
R46515112Q
B05240262O
Y12051416I
D54114655O
P21620115U
Q64554032Q
C46324105X
F32461335J
A60636364X
F21550250J
L60666642H
C61506634M
A45352313R
Q51630053P
L10241211F
V31600023O
H64011101U
M40334020I
R32626265W
Y20162626X
Q62110336H
V32235356U
A60660223X
K65266561J
L61546430K
N30326565H
N20611100C
P62240200Q
H00350264K
R04236403S
T25211026G
C05015221X
E13111510U
Q34324044T
C56036265L
T30450405O
I60406265Q
N55061506O
H11160425N
P66434603T
N45635166D
A65612156U
R15306612R
I02631336M
T52122346V
G11361563E
E20055055W
K34032031K
P42504511G
A56133266K
X02054531M
M51122420Y
Q45443365Q
V42555043X
U13554553O
H46463614M
W16556225O
I64342136A
K03626041O
A53253211A
H13030144H
A12045260A
S36354566D
B25324125C
I34522351C
O36133540I
W41555605T
J56531604E
U46415263M
M12233031N
P21056652A
L46013506I
L01166640P
W35546540P
N54646150K
N32462354V
A62004261D
L61653204M
G61042655X
S12155240Q
S32631544J
E33343332S
X01151651L
C43115345F
H12403530R
I21330416Y
S22335044S
A56541154P
H55362245X
N42263453M
G61501132P
S35216033L
W52416325C
H23266625I
R26011246F
A11635533Q
U41555203M
X30246351I
U23141561T
I31656316W
F45211032T
M36614401S
I05053015N
E02621522E
K40006114A
M55355261W
B66533566E
A61040502L
M11602245Y
D61504032A
E25516620S
M53616002L
P44416460N
I11253530H
