J66423201V
Q03251431I
J65332202Y
I53315260P
C24255665V
L65100634P
K30053634V
W40355624X
T04206556A
Y54451005F
L34434354Y
H23432133D
X02162661H
N22256626U
Y22443112G
S05602404P
L44011104N
L34112122D
O56055313F
O44141042H
M35665546O
B61402504F
M04345105M
S24061323R
J15111141R
M10120201C
L05063134E
R26244266B
O53122031N
H51626665O
K11124436G
Q41302102T
D53235534X
Q52162351K
R46422444U
D62020333T
V35550404X
Y26600032D
B46350502I
V26231133I
I15035143G
T16565416C
G64316005V
U30445601U
G25504135R
H34316203K
N61642615V
B40161403L
Y52065532Y
Q52413242Y
E22202404E
O50664440C
F45420162B
X12440666K
G53242601V
M05525131W
C03651466O
T16202043Y
O31250452N
E00312330U
F16650612X
T56133413G
K24434344D
V43033044G
K35241021X
Y63516342M
R52006223N
W16033024O
V06535340Y
D04641565P
N11533245L
T12661521G
V43111143S
X63135513M
U03133413K
V54100303T
U11150521E
V16661343C
E45441353L
U54330122F
B12203311K
L62263116O
P16655054Q
Q46625220T
U05424664V
Q25524061R
B60116360U
B56503141M
T23202220K
T35646401C
D33031545W
D64414345G
U46322151T
R15346153D
G00163464U
E43314012J
B12023513Q
J62225152V
M33565466U
X21012300L
N63600431G
A52221034L
F40561566X
X24624536C
B40260630Y
N14225513R
A16045466J
R43623032U
R41235015X
H61506005N
M51331135M
H51561663F
Y31115324P
A42456236M
K31434221S
M40531053J
M06516544G
Q10366513W
M11235610C
U14112565Q
D44230062W
N36201155K
T35234655G
L21660125H
F04345440A
W02113544P
I66501160U
B36011654M
R03566066K
K04034156V
C32655120M
B65566011M
K31410626F
I24006403T
E13510306R
G10654050N
T54024300N
C45260121H
G25205051P
A05536411O
M63613315R
P35636515J
K00024301T
K10652633K
U65155103U
N42003101Q
O31656622T
H22636110B
T25150240D
K56606044K
O26605362U
E04065631N
L40332265Q
D06140631I
S22305353Y
P45255043V
B33106543H
O65462035B
P20435600K
X04125125E
T55306002K
M65141003G
F63161153I
Q50406503C
V33261520G
W63520143Y
J45123456O
N35665001J
N62013640J
R64563350W
O03664135T
Q04322506P
U40661161U
J05063115C
V15510515L
L30232234S
K20131300F
O24514240B
B03066464X
P52016642W
M16002265N
W54346606C
S20156233S
G22613336P
C41402630B
D23053352C
A64012021D
R51124625Q
V00006554U
E12460436K
Y06336336A
P00212332O
C03216456O
J13652440R
S31151611N
I63424654C
L60154241I
Y06333365Q
Y11351534U
I03551433J
I50604625K
V51215224L
B10164255F
G30132230Q
P21235625P
E55344555X
Y00222041A
M23536233I
A36125632N
X14323236E
T55005633G
X24350343K
Y54313446K
E66654311K
K06145533K
G63140303B
O64466423L
J52412524E
S53502346X
I40543624W
A25252545D
V21653545P
W02013311K
S50205126R
B44221120A
N46141033T
V06050564D
D40255633L
N55566652H
M03063426O
A41144030R
H00312065P
D42354045R
W13410242W
A45464403B
L41400456F
A03301140I
C06225465D
U53524616T
I25540460N
E03050230G
F40165252B
F35646221C
T65613545P
N44565310S
D60521631K
U63531331Y
D56302420U
G10633430O
R21001152T
W55513413X
V01120553S
I13063153W
S64030535H
F52321660Y
I04664315X
C34535200X
U62505613H
U61656363Y
C20440152M
M56562511N
X11216224J
R22111533K
E01154536R
I23562200V
C65162162R
W42441303H
R15505124N
R10621344H
B54522405J
B16603302G
A11616064D
X60534121R
P34434243P
M05146233W
U53160501R
H53324135X
N35262551Q
G21232431W
S50535243P
R02245046Y
Y05533432L
E26614634Q
T66602621M
O40550425Y
G35115050M
T31063152D
C64231430M
E04563516Y
S61633244L
M33245103Q
T64512406F
A12241230D
I34024311T
R62611514H
D26406242W
Y53031154A
V03355212W
R02510235N
E66431310N
D30303364M
U40600344U
R44535014Y
T13320233Q
F40654043E
Y60560603H
K52321666M
K04034246T
G51530516N
L06466333S
C30461132P
S43505362U
Q45364622X
M36052600P
U24301230P
L44403436O
C63232226C
I55543405R
P43645424F
G65536324U
J13233653Q
F22262432R
U00014314Q
D66065413C
L20105554A
T60541135H
R34641561O
N15400144B
H54342026U
H54533236Q
R05642426O
A43444045A
O63063421N
R00034616M
G05156515O
O42016253L
E61524442N
R30603245V
R01105434J
L32121563P
L20561331Y
R46462510E
N50256431W
D60015405J
O24623316O
U05133113M
I20512664H
A10162666O
F06231625L
F14301605V
R60312613K
D51505624D
L15153663S
O25523134R
J44532603K
R00601561S
F14032444U
L46363621Y
V24455152L
B32425564T
D22251346M
L12242201Q
S46643353P
L50416651U
C34416550E
H21616621Y
I51213202K
I14212520U
S52546533N
U15151354I
C23434610V
X01563513P
C54014532B
U44241250W
T41411112B
T12030405V
C22613463B
X64564335R
M50226565X
R53034062P
D04465605F
X22601036Q
M25664235K
V01635464G
Q53365032V
P03526661D
B04651101Q
Y51132403D
D03231453J
U15254215P
R45525206U
O33453456O
Q35325502N
H41540646H
W32463631Y
W41561060U
K40312311R
A04106363X
U41340515R
B16231642S
S33614545L
O14243462S
U43114301T
A33165263F
J45342645N
C32216451F
T05252232M
C04052505Q
H02066334E
B51365222N
S65536504G
M36442250B
I05644032X
X13401063G
I11421205L
E64041616Q
O56006243W
S41261431W
F36256602P
T66021521R
K54162463P
A12443553W
B66602524D
U43461562T
W50244014T
X46063532X
M06260102O
Y65130640N
O26556104H
E20453536T
A64116621Y
R52552666T
Q06633143S
N53602364G
U05431501W
G65313044M
D23340616P
F60022023M
I00461516F
V21616210R
S01322342B
I64231300V
K03254463V
X65641621N
W21205340W
B04245655N
Y40536560X
T43522043C
H43650200N
K65252140M
C04341326D
Q33555100B
X16256666M
K55266300P
R14260353D
O21002033S
C61521216S
L25242613U
Y05560511P
N40514020J
R34110635M
O61362033Y
G56333304F
T30420122R
T60421354U
P11655210F
B42405625D
E04003446D
H46213501Y
V33433505D
M64506364G
Y04334605P
U10020435H
P11350313C
E15611603R
X52252563A
Q55610524J
F61230446Y
A36433365N
F65055322F
X40313640W
P53313131C
K10422121Y
W04261426I
N60353164D
Y56355403V
U23433524T
G00533123P
F50631535X
X03346600U
A05554262U
I14526413F
R13122351C
M10113000X
H15524152J
W31344050S
V04026353M
K41205203H
K55062431O
D56352542D
C44353555D
I64650611I
T45135150R
J42035150D
N44023253E
W44346051N
D35126032P
K45650223N
W45515103J
I31504614K
Q13646044G
K36320435U
L35366261O
H42550320S
L65036526E
X15222232G
J10351406F
D05622053P
I14556510Y
U16106034Q
P52364342Y
I26643205H
Q45654423X
X54104603C
F53134055C
H14462112C
Q50065666H
O10011411T
Y45513656F
I43342432C
A05504406K
Y21301435F
X24106352M
H20031524A
O30502662L
J51530130U
M14102333G
M12330243Q
H61156016V
N02533310X
B46035634L
L00245342K
W12432525E
W11004112S
C15660462R
L30401363Q
E03511445A
T55216230D
L14561315O
J05222300O
J14021151R
Y36626445H
K56246051D
M31034161T
B41263335J
I15454461M
W35411033G
L00322660D
R40621140B
B60160114M
P23512555L
O33536455R
U10665605Q
L12235126U
M56660565I
X40566306P
U42022404S
Y04341361L
Y56246136G
M66362553L
P03664455D
Q54061054K
D22262303Q
X35366501R
R52550223E
J13061221T
L00162344W
C53212360G
H25462005M
E44122503N
I50320165M
Y21361202R
R65124420R
U14656643J
H20221233P
U40301465B
N13636201F
K14224552R
L43605246O
E24312202B
F14606300E
Q33103463M
C02623264N
I21143025O
O52146020C
L23324010E
O42430123Q
E14455212H
R41613565M
X20113612O
B50342006Y
J36643051W
A42422512J
W42453120R
D26222406J
H62021264X
Y40614141B
K20211535W
X14233456H
H01331345V
C54465544G
D20420221X
N42605566X
H12331012W
O11631562G
C00664115K
I05521455M
L62134532S
F52304104K
P41002620G
Y43305516C
N65135556X
F32663606R
J34254501F
B04431152L
T45260603D
S23445306B
T66316065L
M21263534N
A15266315V
E44166450Q
Q15310240L
F02631202I
S41313243O
F13166203M
H26114614W
J61316142Q
D05545041C
M31642034H
T51425624X
O10202315H
S16261305V
B42200001C
T51154513A
O02024054X
H41601402S
I02502544P
G65155265Y
T30251015Y
I05624362F
E66440261G
J62615305R
W22432634Y
G13261505E
M61416606P
J56441540P
C13105343A
Y04501311K
F60550263Q
Y03106253P
K54144125X
W23305553P
L43064366L
V52506200B
I62362202U
E40015653G
J13141501P
D55533615M
B25040002R
R54560245F
V64312110B
C40054302X
S10654236A
I14125335R
L05241155S
V41361534E
L10605361R
M51651000E
C10405124O
D52445303J
W24415362Y
X53655455S
Y46636402V
E12316442C
S11312661H
P54014331G
F06034503D
P16411453U
S32333233O
R65352323S
O01422001I
P26043006O
G53552225V
C36430641B
K56522152O
S16056055D
W42554565C
G54405254W
Y10012403P
M46401264E
G52644145D
M25123524V
X11522245P
W61455061C
W13222305R
S14402153K
V24144051F
Q44003364D
O36130062L
I25644342A
T31532600C
C23356041K
U26305511E
M03214042L
Y34126051D
W02211633B
K14163300U
T31411632Q
K42315254T
Y44444460P
L04535246S
S60434253K
V04111532T
D01615164B
M53501634V
C12633116T
R23023604J
K51324063A
W23536023M
X54613042R
S26203246M
X01525406Y
T01621315I
B36215164A
V33650024E
S41350453S
T01336463B
S14665222W
I45331326Q
J00612412B
N32231406L
M55214341K
P46316420E
X56264340W
U65016343N
D16306301T
N32232304D
J51452620H
E46503561H
X51321464I
W33425023U
B16044506E
S60516323Y
U53362466P
J20654261B
I33310542D
B42344211U
C50434143G
W00360416Q
I31306641B
G35333036T
Y54464005I
U44552254O
J11231320Q
A36015552L
K04625152K
J51663155U
M40000316C
I16616015C
T03134564C
L11004136H
N33614664O
U54330611S
H41561560G
P51146216N
K03402345C
Q04661525U
P14141664O
D03115006E
V23623400E
X40355551X
H42564133Q
K11322632A
N25532542K
L50106262R
P66035245T
X32264550M
G15461005B
S20136556Y
J66650325Y
N15013661B
D66616536S
M15536302K
X63556033K
V62223041B
D44311412T
V01064025W
Y43565042N
K23204146F
Q56040121W
E30333550T
S41550143M
V66013636F
C04230523P
R24141064Y
Q43315540Q
C03562630X
V63214451G
K50352615Y
W05654040H
J40223420U
X06401321Q
O02015410C
V56401320Y
B21154364C
M44216322H
L54353605A
N32443425B
T20554644R
J34024116E
O22602256E
Y50162603X
V46003261Y
O05135032E
J00046042T
G66454355U
O26025424W
P40613115C
B06441245F
A21106162I
H13436125R
D54163426M
X35026354G
T21142064V
O45521132N
Q26630031A
M06450555N
L51060612U
V45254623N
W63504424S
V55431104B
I65003444L
V53352505Y
K12153252E
N53304130Y
V46105312L
K34110620Y
K00056312V
X66065420G
H50340521G
N13661405T
E21645040P
S04101465B
S35254231D
I45263562A
M02234013F
D12134551G
F53110612K
K42121563U
O52204010S
W55322566G
G30034330K
R54224520Y
C13565354A
E14400121O
K14136634L
J52613351X
E41042002B
T33161060U
N23420263I
H25530325U
X26433451U
L46000541N
Y23033605X
K41162044L
A00425350C
I46054531L
J40233216A
G52125145Y
X32125122A
L63565154H
X11524113I
T01243350B
N53135202X
G31450424A
U25343466S
I26234300I
V54044516A
R62235413M
E15405235C
W10002034V
S16531103D
M64323226N
B51226430S
N60314113E
D46204000E
X63144665U
E65623111W
H45454120L
M62555031R
R16014531L
U31542033H
K32232614Y
B03035220H
K30031601N
G62562021I
P34550226K
N42113332K
H13152441O
S00221130H
X12452321I
W66154565T
H03255400M
O35031135K
U21632226V
X00102006R
J03504514O
Q13231114O
I26344110B
F62320315L
N10021104E
R06402310C
E04550632K
X11652334I
Y51406304R
E06601015S
K61631246R
Q23336633Y
X11143601K
N42525113G
C64534362Y
N62116414O
K11132226R
U41005222B
I20435135O
X41416066R
R31004665L
Q40161564E
H31534503H
Q65610114T
I11251522X
Y05226631B
E65360435P
G32142606V
L04053455Y
V44536012G
U32323042M
E40332663O
O34654632M
I64236635L
O42546005F
T42634404D
N13255403A
D63064656F
M13416200G
E11655216P
V65244246A
X15114420A
N65423125Y
G45524013J
J32542060H
W45405114R
T41164435T
E54122346I
A52520221W
I03020043X
Y03231241G
E53345161X
M61434646O
P21056103J
C34411206X
D64413006J
U11001536V
T42612605C
X54032130J
Q36363101H
G12516432H
E51401515Q
B16221325N
H24314564H
U43433664V
R05425436Q
J45130435U
P14010124H
U64651003F
U55551253I
R24555062W
I42156666S
J54212632E
R46222406A
J02452330J
E20645353L
L23425303B
S02343315H
I53612331O
I34420546X
O12314102M
V35252066X
P61260250I
Y46121415F
S34560125D
L26250622Y
T40162441B
X06210120P
W23001213A
T55541610Y
Q61320640X
X11460103K
M45312525N
M10205534C
U11550302Y
Q55213352C
W00243053J
F26000623K
B20415156V
X01661510S
D46503560N
K33102055R
U26666324G
U20233256M
C65135552W
E12001615J
C32630614S
L51256331W
M23131345U
T56052023H
A04606666J
D45302050G
E20040542M
D15235105L
U15610451W
N06521166P
M03044003B
H43661003X
M30311546A
H06263232U
C46306625B
I36064136A
O60646121J
T16366134M
V01340022P
E41362234V
R32536452X
X33056511V
V02602152U
M03516223U
J62611031H
G21261635W
W24144205J
B34426366Q
U23542054E
X05466305H
G36103416L
W46653422N
M36512120H
T50264305M
H41151152H
U50551331L
U12536516U
I26042016D
Q04545530U
R26155254Y
J46110411T
X01640664O
O03110232U
A22120342R
R52005133H
L11411455I
R23652551R
S36355510S
N23661152W
B46433063T
D21324356C
W06651242E
R25362603G
G42240115J
R63213421C
H13555166L
V55141461R
Q62004536T
U04131521P
I04030413U
C10022632J
M66430065D
A04561555K
C16565336X
I40444121R
G30136151K
N00403310V
O20346122O
Y36306406E
H26345206K
V53410543K
L66340544G
P03651230Y
H42115425L
D55024034L
H60226111W
C33021636I
C00222254R
E34623143N
K36160104Q
G13026120S
B64532433R
R55653423H
X34612523N
D30065110D
F36541006J
S20005461T
C63644210E
D35542620J
Q04204000N
O46365332M
F33022644D
B66404343E
F15463103E
K61256525C
K35232255I
W15642023S
N34443650K
O53162022P
U15112116F
C56153341T
F43623406G
I11255564X
C45360553E
O44115400R
C40016145B
E50465024J
Q54000530X
A00412113D
R53114340Q
S61433063A
U11014310R
I21136121V
Y36565152N
L11023212O
V54613023D
N33546540W
B54106206K
D36400045N
K15120330B
M61462516J
X55245443P
D62112040J
K41261166W
T24461455U
P00444412N
G60645230T
J22212352W
V11621265B
T62043532W
G43241101U
V11405002X
E02541331B
A21661544B
W26216321I
A52154022I
F56062112X
I35666334E
U12115601S
V14416332P
Q24641404T
S02036360Y
O16515455J
N02311041G
M46343423D
W15354326Y
Y06505035U
S53611124F
Y43020012L
I06442011H
Q34343131F
G24043622A
K65201663E
M44534166V
V20634513C
R36160300B
K02066145T
X32021521V
H63305024B
O61563251E
D14264161E
J26232444N
A11531521D
X66162432L
R61141332J
L25661114T
X60161654S
D61613002X
I50160614H
H34311506B
G20012165K
F50064342G
L10012421L
Y60265452A
I40262446Q
D40346643K
J00324013C
L21663134I
D44026465G
O51124102W
H65521603W
M36221062X
E22322665E
P43246622F
U34632405V
F56226642Q
A53051462T
N53115646F
J60364122Q
A51134215V
A34131650P
J00055102I
I21264652X
Q03422101V
R32235016C
M15044045G
D60543230I
W23331041G
V54513033C
K45555500F
C04345545P
R10641512V
A16250335Q
X32622525G
Y21544056K
P54634105S
T50105620M
V45105152J
O23034000Y
F16421332V
R44665444S
E45330031E
M64066644D
B02162542E
U43041531A
K35304545D
G46342540S
L14445545H
C30054146V
J50440661Y
X02015534W
D55636060T
R35442512C
I25365241E
Q16425242X
J55225540N
U35665400M
A51263050C
O53053540T
R41456153C
X30513405Q
H33226324S
P11315263P
T46251064V
K02404262X
X40006534O
N56233340M
Q22465254G
O21343062B
I55262455A
W22341224S
S40416145Q
B45136316B
I26006010L
M13033046U
V55410420E
F34631033B
Q51316253O
V65333341E
G55411510Q
R64610232J
A26113461W
U15033313M
T15641324M
A42335432C
J50130466E
Q41642214F
J02623366P
Y36024610C
V54165632I
H54224343F
T34255044T
E25000225C
P25625054Y
L50134040I
Y44621554P
R13545055V
B24011161K
T64251321H
D20632616A
R10600352F
D04660461A
P25465011O
Q01051112A
Y54114105V
M35120250N
S03453653G
S65301544V
Y11216010E
M14606603E
R01246545Y
R11303503L
E34025160O
A54612656Q
J56436006F
A30262134F
W10001215O
E24345314O
V46246343F
K66066605U
J02322544X
Y20322613T
Q66142603D
G03102230O
Q22412164V
J10400461H
F44116063X
K01051164N
T21335060N
Y36400306T
N62053126D
S10636646E
Y21015205H
P33600140J
N56451421C
J55550342W
D66621326C
Y42522345X
K56600340K
P44126532N
Q04330414C
X30254200L
W55213115F
A34566341X
C03605135X
C24626244J
F26130512V
N06124521W
C03654411I
J55513456A
V52113054H
F51300040U
S52116641R
A16303363V
L12543266S
Q24051651W
M36562501H
H20043122S
Y66265245I
V50135625Q
I46101500P
O15546124U
N54025201Y
Q04035166T
X65465106M
H61053124Y
E13004445P
W24332303S
B54361445L
K60566331C
B60405544R
T52044351X
X65254622B
V30500503P
V41355401P
J56513054H
R16166511J
V20231132U
O36632301K
V02055025J
N63153353P
T61306614G
H66250311A
K12223663H
B33015230G
D02454514W
D44412363C
U36336001Y
F31566661G
L51200406Y
T60031303L
Y01603000X
R36314351Y
U22663010H
V53435540L
T01042435M
D32662616F
Y23045051T
B26004066I
S40156514Q
M64640463W
M45225304W
Q35142632Q
W45466153K
B26046404E
G41615331P
T44363252T
G45034645G
M00606166T
V35504604P
W32636453C
W00355056F
E64231323F
I35555610Q
S20103542B
I32241435D
I56516505A
O61046526B
T25400430D
E16261246B
S36505163N
I45662415E
I64346045R
P06304203V
F56535400O
C14331534H
E06133534U
W64335421K
Q25052434U
T56045455Q
V20061505X
O51233035Y
E21315100L
U66215134H
K31021200V
O35116452T
C15464334T
N56613526E
F34321253U
D12660661X
F06152102U
S16505641U
O41626541I
G53564235Y
H05565013O
D22342206O
S30036521O
C35112454B
E23562445O
K01106124P
H00034014V
S55525524U
R52013323U
Q36600014F
R11356331V
O25410624A
G42152343B
Q31321053B
N01034644T
V13135262S
V55006216R
Q60400230K
M64253421W
U62026611M
V46201100Q
F30641601D
W44024642S
T11101042A
H56114506M
T32336602P
C50216064Y
P50243226T
I40533123N
B15611524I
K45043666K
C41322566M
G12525043M
H21632236X
S65462565F
J23130156A
Q16161331T
S41211241Q
P02554420K
C30436464X
I51030562P
V35103133G
Y05244424M
P51223162Y
C25420443I
P40530626X
A05620011G
O36316363S
Q25016440N
O55243040I
V63653646L
U02403466V
S33613514M
S45210410R
M31642444E
T06360562S
J41245316A
X43243445Y
P16646255X
M53251642C
V46401430E
J32145522A
F45013226J
P11206502D
I42320621W
W41361465B
R41313056R
Q34140205L
S05641663P
P25066664S
F42666061Y
K11121526A
M42563645S
M64543212L
Q56133151L
J22030666Y
W34143241I
C20062056I
O40450622K
I42465400P
W45211102F
A36564551V
L54122301O
J44320651U
C02031312H
S52222143G
V33006552Q
L30554504T
P60300532M
P22616363S
B34114164W
Y16542135G
I65355323Q
W63601453D
Q06062006G
U36312413Q
A11533433H
N10052431E
O33163104H
I43461405L
K62301134Q
O44332240D
O63642454Y
S36366213R
R35266553Q
W41004133V
M52255333E
J10111642P
U14361366X
F65464151W
C43221630M
Y50142316D
L41101634G
T22323512M
A31252616E
G42401552H
M42456666B
G45115245C
O45536233J
B60326415L
J63463403W
E44303202N
A44402525D
O06206403E
V00511056L
B23131026F
B53162123I
Q54544404C
L26311431G
L20242425N
G12420064O
T66121012C
Y53315231Q
K64562265A
N14014154U
F24616602L
D05431504A
H01454502D
C12506235P
W26115463K
R61425026Q
N22445241B
C10215360A
P20415111R
W50466406V
I06632236F
D46226514G
R52152612A
X23661453B
Y34230001N
U35035101V
V42532651D
Y10116432N
L40050363R
H43353246B
N24052533S
O15255655N
K13455236D
D03550403N
T05360231A
X46623411Q
C66312066W
B06162062M
Q25362552X
E36044145I
X44511252D
S20120216H
A65403406E
N12542104H
W36645643A
E33516041B
N20331224Y
B02406113W
H04424225R
Q33536232X
M64033105G
I04264366O
N41326322Y
S30015014U
R00466310C
D54054424W
D54204544S
T13502311C
J46216243K
E16214226L
L06336512A
U55411300K
U11340365X
B64241036D
R51552264G
L05145523L
K50666001T
G33550404G
Q25230433S
S12464633P
E02613661Y
X55511055S
L53132556A
V22315016X
V14465612E
W03331154Q
V54331643Q
L24501253O
J62465203M
H40123636Y
W66051462E
S26463113M
U46442326W
E25024665X
V46360650F
P60423106W
I44125534Y
V14543140Q
P34053403C
L00306306F
W44415301T
N13145654S
I15454125H
C55130035A
Q04633101M
P31603060E
W25111440V
P34105305N
F36412421C
Q50026053J
V30264602I
U36204230M
I61555565F
W06245563O
Q26066115Q
Y13026541C
Y45032245A
E04123110O
H40406634V
B02550534N
G34543060L
Y01465531E
O42340425P
A33106221F
Y34614664B
U51661314N
X26143210J
P46052440S
X60053511N
P32204542P
A44134041X
Y55644105K
I14515106U
A61641204X
A01366343S
Y44404622P
Q14033064Y
C54064214X
R54612051T
G50131033E
F60466345X
S21101015B
U22012116A
M11236451U
N32061062Q
V11330313C
F26023542G
O20542360F
X42161455T
Y64201331J
T35600620S
S62521161J
X24524243P
R34525150V
O32126322Y
R00000620Q
V46542304R
C43563263O
B35263424U
O66416355M
U05140464V
O54351605K
L30642046N
V64413215F
O30545340D
B02426230G
H56510052E
P20643003N
E12253312O
F31603144K
C01030201K
O60231346J
C60400456H
T63606230L
E61021455B
W32603254U
T64541655S
S34336564M
P15565560N
S16506426C
K40345630Y
Q11305622I
G43254335G
R32414364S
D45366354P
T62360602U
B63615156E
T62606331S
B26321312Y
V60366443U
I51053646U
A16164263B
V34434402H
O13235105M
G03502166J
O25651546J
B44653023R
Y65325364T
P54626430N
F10163552N
A11066305B
Q66343220U
S66342034Q
M26216330R
R55426146L
Q56103615H
V55402153V
N16510662X
F10554210Q
W30333031N
K34340552J
G45211331B
C54613161A
C56626153J
D20012061S
B41252566U
R32155113X
D52465230J
P20435353U
A65643324H
W02511526I
T16426414J
K46144622C
T51145406F
N22060561N
N61604663N
O46120541P
U02321155P
F25511240V
P52133545G
U46023434A
F11552365U
R41202411K
K13654131O
G55424033K
J50110504O
P03224116O
P50546042Q
L02431061J
F46143132V
N21305431M
J01606265S
J54651406C
M55104436G
I03206651G
O22245150Y
D66655025I
Y63562202H
B25651424M
T15540362F
C41355101G
K04624362N
B54656533S
Y16526365M
E34551411E
A12015245S
Y53265425Y
M06461226X
O12315435V
Y63636002X
Q10352164L
G56604052A
A11622035E
J50431635O
T03115612K
A50216451I
I34044444K
G00151534H
B11455106U
O60143455K
K45552616O
T31111350K
D22150033G
O45252240U
V64103524V
D31565110W
M26634254C
Q54213335M
J22135135A
S46515332N
A45653403W
F50311362P
N20540335J
P55623463W
I13021600K
G44530140D
Q21304023A
C45444055A
G40236343F
F50134266M
L30004660T
G23301114O
W50234152A
B30105222B
W33613106S
S33542603B
C24233220B
H11632445S
N23105306G
U50646001Q
S30515054Y
H04333106W
J30636014L
U21305462H
D61001246I
L66552560F
M32105054O
Y00334250R
X32366323S
E51006505C
S20346020V
H16464245R
J16166010D
N50631030J
K54135544W
I43421520X
G35653312O
G14012105K
R22245232G
U35622033G
D43231453S
I45541036V
T63005332E
H53522616Q
O56522430F
I50615566Q
V04205524O
J42163333T
K43153463Y
U41555644Y
V46062541T
J35100636F
A15616201F
S05414614W
R43226453E
Y12134103V
X63403121D
I05015140E
U03663255A
D41561644P
W02204231A
U14230055V
M34333560G
F41332600V
F15056332F
N30336432E
O54013405Y
U40362353A
J52211256D
Y40206245A
K54030364Q
P41066630K
Q05101046I
H46425135P
R04123235E
S12413533M
D44053210J
K51563304V
M16023060T
I12263646L
S03245642D
X36063203V
I36343525G
P23323622P
F13126145E
I40153044B
E40322154T
Q36022220D
W11152215X
G60111120F
D13336156L
B14145221D
G30360306X
L16132142S
R55130656Q
W46465634C
Q03300520G
O64643046E
N36531155D
C14063605H
B36364202M
H32212525X
Y04112021I
G35511056N
R63660210D
H11215201A
N35060622R
D36546422E
M30541236C
H10012345H
J45411105U
C15533312L
V63626334V
A64005421V
O43152323T
P04503653S
C15611140A
N21242423K
X06450000U
C66233630D
W21652364A
E22063460M
I04604254K
F21365163Y
O45051464B
K40536304L
E30330211Y
Q53123215V
B04045344L
C15646212W
Q32504600I
H51213125U
L51433112A
U05515366T
V05322145X
O14121006D
Y03533046Q
W34464516V
F61334365I
P21120324P
E11302602Q
S10320524J
G35510444K
A61045102W
U33335522U
V05361352H
M00460645D
J35610104B
F16540433W
I46650205Q
J60644603Q
F51224442O
F40121233L
O60433543U
R65036266D
G55434462A
K15350603O
J03313202P
B16163350Q
L36564340C
L45263604R
C63614524T
D03412431K
K51263066X
D36101343A
N54414031P
I41131664L
C03655453W
J33406664E
S33054450D
C05613204N
B36544125X
W50443513O
Y44453263X
A50266504T
Y00666141C
D50030021G
T43510015T
L02011220R
M63064005S
N46530502J
L60024626R
V63635421K
T43665126X
Q03323460D
X25543352F
U33112225M
X61410400A
L35316244C
W25422450U
A66564530L
O23666414I
H34154310N
X55025246C
D33213261X
D16530136D
B24121034V
U56404411E
V55142455G
J10006115F
W02504304P
F21012625B
S32315440E
Q05624454E
T15031100N
B34035224R
W62615331L
X62605530U
Y41520315G
F23201335O
Y36110206G
A01354553D
U56454252G
Q54202102N
K16300513E
M36364113D
M35632101I
F05165333T
J62556060G
I40534461C
W44141613A
W32243352D
R04435365B
G14260025U
S23135200E
E26202036C
W31206452X
K05641520M
T44012623G
B51231063G
T42511044I
J56402116R
N65465113M
W53616154Q
G50634653H
C00663160Y
N35063312V
M41465432W
D65251433X
T10010435X
F55560364P
S64455133Q
I16101553G
N36156344X
W14461660M
H43163353B
P12045216T
W60234234X
S53266331Q
H51430256O
B01164451U
O06163024J
E26126500C
E06351133A
J00041014M
J32326235I
B51014143Y
X44330553W
A06363405P
P65423441C
K32100042S
A01326654D
V13520245M
X14031502R
N25453303E
W15362525V
A33335254F
H03620611V
T51621443X
P63540566K
K03353541K
V60121551Y
N54362124L
G65556264D
O22050045O
U50530420Y
N40404562C
L14401024U
J31063142K
R10365023J
Y03544650D
Q36422266T
S22400124V
J46426350S
G32420164C
J56443140E
E66513553F
T01325062M
E62162030L
L63623413B
O13606431U
O03432515C
T64436254F
Y13402450G
W32412032A
M14440635U
J32310602N
F15342203E
X15301462O
Q50562320T
J33623621L
B56323612L
P04262120N
M13121110I
H43611656B
X20220551B
D64002450P
Q55500354Q
M34110163T
X11416436N
J50066416V
T01322142I
M34156421E
N11030631V
D25516445L
P32402320S
M46450166C
Q34410361T
Q46653164T
D12004434L
G55626416O
C02616540N
N56351531T
D55241565Q
L36332155X
M45423351T
B66034220G
U10361555E
A33006206S
Q00061505C
J42543441G
D26345512C
B03251630J
C26561534E
X44013620B
K12123255N
Y43533165R
Q03136362U
W02631153G
L32656065G
S45160060W
A15636044T
W06641101L
Y62366063Y
C14055615T
I30341650G
D50516522G
G04263510G
U10656631H
V03660611X
A13506641B
A26460110F
G03012050P
I46326416O
V32303260E
I43404322S
T22360220J
R24021045Y
F44111423M
R15460525Y
P45031542T
L50421420D
H22311252M
L54546332X
K44606522I
U14213623H
Q12022231M
T40354403C
X23503204K
R31631113Y
H22125033Q
Y42155056S
C32165461Y
V03525242B
T64121314Y
K43044155O
W02352235E
A05444411U
I66012644K
O16103056N
J16021122R
H23441043D
C34604513H
V30113020R
H01431615A
H15241456F
B06412404L
X34243012K
C64654321S
P55131210S
R24631145N
L04226361G
Q62626615N
K32134510D
I40254453D
T41210602P
X15564043V
P40563524A
G44616531D
K45660031K
U61053433W
P00421433A
Y25364200N
W16622523J
N16261320D
R26530525R
X02506144U
O51353305Q
H23016545N
L22245233X
B20213006G
Y61511211S
J66524646W
I31241325U
X56464033O
J10435432B
W61312066Y
T31001043W
H00320512E
L00302356N
J22350544F
M04112314P
M33113003I
M54144003C
W51620666J
U26321502K
Y43563411E
K15625046V
G26552421X
N62463361R
X43525360P
U41152326T
P46350110Y
P43106451A
V53613663C
A54304350N
H44333003H
K66310323L
I24436203V
X04226254M
C43222625Y
X11510364X
L41451664Q
B54431546A
A11551161Y
C66611400W
X50632102L
T66351033O
E23520130F
E01452020B
X43042112K
C33431035M
Q12051404S
F41326211R
E14553463K
H26134233X
M04121035E
M63625134E
P04151233L
C62053550P
S25664326O
F04031343X
Y16322435M
F14155310P
Y06406223A
Y12643122Y
K16165005Y
D25216034M
I25625066T
Q24222562D
T31501413X
L50522405K
X56652344Q
Y50242135A
U51616612W
I24626240S
U00020051H
O21022224D
M51262605P
X40442556R
O20613651S
T62233544K
J55163243J
X15360651I
S10632421K
A45610346X
M66234301W
J01554205L
H31043030G
M50015236I
L00031136N
G03455330L
M40044666I
F05065040A
C03112345B
D14504024O
F01511365K
D50422123H
K42323236R
P00503206K
R04563560T
H14151232I
P16303323L
U40344664X
Q16116313T
Y66034146X
B40214626V
G02405025H
V14403241S
A40254626V
L10463223K
Q63534636O
A20435426W
O33366416A
F04601254U
W03040435S
T04244266J
F45162465T
A42251165O
W32211262X
P53013511J
U00456143F
A01426634L
X43453261W
R26563160W
K21460225W
W31506612O
B26026262P
D16255400Y
Q30035202W
A46254224V
E11660415F
R65333450O
H46046204G
U14455443L
V64012424I
K24234653E
S41531040O
E65620101E
X62244046T
Y30235305T
J01646042L
G11336454H
B03451251T
V56525601B
E03020252D
A20656556T
A56114222S
C33232234G
F55030601N
S21155624K
C16346140M
A06125146M
U33064312N
W26224464K
H25261522T
L15144465W
T30135415E
V24150511L
I46421320U
C03265645T
J21106522J
G55620045I
U05002021E
N05236254P
Q40522341Q
F23653321Y
I34002306G
G51312642D
K45566152B
C20222260R
C45532525J
H46510446J
E12530232N
P00111214H
L55366123L
S04346435B
E26031636E
C61523265K
R00154204F
S23432625V
L34164534T
H02446566B
E35464051D
W40124522M
K00051136V
L52256665P
K04436115D
C43132653Y
C30423365M
D11201163D
B50631233K
M54032452P
G55665063T
M12143653W
B12026562Q
Q36063351D
D14660316I
C61365156X
R66360306U
L10631112H
Y20325046X
O01632142G
O24235403E
S12414335W
U61505351F
I56420641A
A11046524L
K56551126O
V11206434W
V63123652D
Q04326555J
F25065456E
A42061301E
C51150404R
R02364452V
H40055505P
V40554154W
V63062000S
M03650535C
Q65633545H
S23221026U
R52223642O
T13512563H
D15345254T
X35146135G
L24406555O
J15011310X
E55313123K
R66343066R
F41000361D
K00055634N
N20111561S
R01250546P
F21560016I
J62155250Q
K01164230L
O13655202N
L54263533O
I53244645P
G52451512O
G55456160G
T04563133F
R05214066L
V46061310S
R11552420L
S65034641Q
E00436054S
E00604666G
C05334123T
I53452663N
A05122110M
D16434635G
G63051252I
D11414006Y
Q40630154C
O43413352S
M11240631C
N53224433W
T26520156G
T54003164M
W32034614X
J64645246Y
T41653010M
B45314346T
M21513122S
N64235156U
L55445614P
G10030536X
U06652462Y
M14320562G
X53030345B
P21020550E
A22503311I
C54066146J
U60500254P
C55234326J
I43222312G
H53443150H
I43306046L
I36520302F
E12452651M
W14546361W
H20512532D
I34525264V
G40234131C
I64216406Y
W50262623D
E62002011J
C16221235D
N22213233D
Y54622536N
B14254534F
L15145233K
R42614530X
V42553254F
X42134041C
H43032420J
H61136363W
E05542206B
O04155226G
J60450413K
L42554620B
E16434004Q
C65111342E
W24122120P
H53363532O
P03661434Y
Y21066110H
H25114025I
T34456523L
W63522621B
X05643103Y
T16001625M
K65662535B
L02313316O
H62363653E
S15503545P
E63345123N
J61130502W
S33460036H
F64546253M
L55533202Y
J01556442V
U52340013I
C55663200L
W51161363F
U62433504Q
P05002311G
G62455603O
Y10466156B
H65214650T
H24454021N
X34545163S
G06335225T
V50150400U
J25053113S
C53200505M
R36354030P
E66102432B
S43326636T
K14432542F
E42135645D
O26024026E
V66341461M
B42664135W
Q52523166I
E45222426S
G10104545X
M21453104S
T25050312Q
H10546242P
T61035055U
Q36466430D
W66643023M
M03501343A
I22235343C
J33316613J
N21130023R
G44110243N
L04031506P
R13250551X
I56611333X
G51010662N
C26035556S
J16512561L
X35014332T
H04550534Y
Y13521220T
B24651145P
U42622536O
N03463640L
J32645466B
G06316024T
V62561116X
C40300223G
M31363336H
K45251434S
K03022442U
O52234600O
U06316601H
J46115026C
D30332363P
M53144165F
N66253012K
Y13615546X
U31346135T
S34623426P
N65234150J
S34156232I
D33202546F
O44425610I
A20430153H
F12300655I
N20620032O
R45350042I
B26112565C
W30244333M
G65004120O
G62003461A
E43534513T
P36043216X
B14642605N
V16541263I
A65313305N
D35021345H
W25402621D
T55302323A
H13113360O
E26001110S
U05214336P
R35231105C
L42446420X
P63251002O
L43211045D
I35400553F
I46405543S
O62403624T
E61161006X
L66065563O
V10052352S
L10243120D
P21626225K
R25542061U
Q40015510B
S42326353K
P16015060Y
E34535531W
J41601044I
B51004154M
G63304523X
J03015041F
J02316655R
K01112524I
E35546032A
V30235013B
H62526633W
M50033653P
S32235341R
A20545563M
R01451241N
Y41306600Y
P36210356M
E05134161D
I26366053H
I43020534P
E44614146N
Y43101553J
M25601635X
H40632511O
V34236412Y
W50262626N
R60420425E
Q01501546N
R13500054R
F11402443T
E10452131L
O24345614F
S13636553N
K56462436I
P63446606H
O50324220Y
F32435535T
K66601426V
K26126346B
A52202344N
G25360224L
P41204643N
L44146146A
A15652153N
A10541231K
G62552634L
C00220310N
U20404122T
B31641050L
E53516050R
G53152532L
Q51021352G
F01511305L
F21254434W
I13560633R
S20636642T
K43665232W
F03501030T
U62545416Q
C34002042H
W35632045U
H16222512B
T20546365T
I63235635F
O52015202C
V55210233X
Y04405311U
L66052330T
A45344013E
A01252412M
E54320421N
D01015054I
Y63016314F
W65520502D
N30346064B
T23636303U
C23301630R
J42425021G
V65460011G
D21156333F
R26144640J
S63262521O
F20063035F
H42164312A
C25113261N
W03330615J
N42115524M
N50334551J
V00053051J
R30610263D
L06245452D
X60546316M
W61216346T
P16024644A
G66156251C
G55025661G
I03220163Q
W11041263K
B52254036H
A30546465V
F43103014Q
P40532130H
K65250504O
F32243204K
U64614142F
M55064024T
P23125066A
I05655265F
M32131520O
A63556500P
K34201433D
V66414416Y
S36530612H
L15542541H
B33033500T
K15004616D
B50424663O
Y03303204Q
R62241043Q
W52464544K
D65506266O
G65244326G
L53662643P
F25161513W
O61530464R
J64221144D
Y01255234F
I14003305U
R65116451L
D62053161T
D42532140W
R33545126J
V26421061V
F62345242K
J04155261C
Q66561251L
I15346005Y
J03204265P
K11145300A
L53205126F
L53552206H
T64562246K
I65134461B
C25162542O
U34655221M
R53344366M
O56016505E
F42152130R
X46534321S
L56403164J
Y60154223E
I53265101K
Q54200435C
V51133401O
F25335621T
D23634153G
A42001163P
R45352003O
F01334312N
M21041516A
M12450661B
M35460550W
H61051245C
A45552022T
C06004552S
X42012633G
T32230265S
T26662512E
P53461600G
D40512140H
F56502161B
K20631245I
S22204614P
D54404143F
U65665400P
H06605044P
K62413505W
B45253064N
A05120535L
D33346355A
L30400550J
M64425424U
O06520252A
T42130241F
C00526125H
A51265426I
K13425350H
N65414123N
Q14446201F
Y32234515Q
O51625540P
V23251433S
W32623450C
V60465511P
F35162062S
R51502265E
Q33246054A
M02151653D
F30150113A
U43661130Y
Y24052143O
Q23130164O
X22531465K
A26514554U
X05040555D
I65443132M
D32535503G
O65611650P
H41026505E
C04056315K
C14614511G
X20013436Y
P61016210N
D40656661R
V55503024H
E64163024Y
W42562453S
W22230623I
W16463452X
I34644145J
N16540565Q
Y53446631H
Y03355221K
O10232500C
N26432452L
L41126101W
L02460514E
I01540442I
H04243566E
R12131426Q
Q20412616T
F63413512Y
Q06263400G
F00110161H
V50663653P
F43320526F
W26326233Y
T55354535F
P54036626Y
J23331405Y
Q21334656N
B43555362L
E42240036N
I04066603R
F51223215I
T32215504S
P34635015D
W20304413S
B66533554H
X10550304G
C35013421D
Q51026345G
D42452350C
R36355536U
D12456003D
W05202310I
I66350535S
S33215456B
R60032344A
H44314253K
K45551345L
B21225664I
L41104053M
G01351300D
M11425062A
R10222546R
N22042453Q
U35321624C
L26523424O
I63330243Q
L56060060B
Y44263065A
E46656665J
L65320444T
V11041523X
A00351442O
Y20515655J
D32213053Y
I12143166E
L32404545Y
B52432011O
Y25500661N
J33016322N
A34025566H
O50602111Y
K05301402F
N21020551H
X16236524F
O26462065B
I02324524P
J13451222Y
U64504203L
U62510360J
O22406024N
Q02054536R
O26303135D
N10121020D
F56555331L
W44304464E
B22346163S
X13510031Y
O44464161A
A33214020F
H24425350I
B23412242U
L33634524U
B14216124W
G63625112R
X16404446U
K12501616R
S30132263P
T05563506F
C06615040H
L14130211U
C01431215L
J51642646T
N61046023O
T36664630K
L32414555Y
M26202604D
P05621211T
E35601300A
J15241435L
R30616516R
N11445211O
Y61443661K
H12330412R
G30352103O
H02425201L
S10642651U
S62400263J
K35325236R
M66542413S
V13020655T
N15223126K
I01450261J
F26210216U
Q06212423G
E52134553E
B40514232M
B24106114Q
G44556202G
P02115256U
